Bulk-RNA Seq of small intestinal organoids from young and aged mice
…
## Warning in preparePathwaysAndStats(pathways, stats, minSize, maxSize, gseaParam, : There are ties in the preranked stats (6.85% of the list).
## The order of those tied genes will be arbitrary, which may produce unexpected results.

fgsea_hallmarktdy <- fgsea_hallmark %>%
  as_tibble() %>%
  arrange(desc(NES))

fgsea_hallmarktdy_toString <- fgsea_hallmarktdy %>% mutate(leadingEdge = map_chr(leadingEdge, toString))
fgsea_hallmarktdy_toString

## # A tibble: 50 x 8
##    pathway        pval    padj    ES   NES nMoreExtreme  size leadingEdge       
##    <chr>         <dbl>   <dbl> <dbl> <dbl>        <dbl> <int> <chr>             
##  1 HALLMARK_X 0.00151 0.00684 0.662  2.60            0   187 Upb1, Comt, Vnn1,
##  2 HALLMARK_I 0.00161 0.00684 0.694  2.49            0    92 Ly6e, Batf2, Ifi3
##  3 HALLMARK_I 0.00151 0.00684 0.624  2.43            0   178 Ly6e, Ptpn6, Mvp,
##  4 HALLMARK_B 0.00164 0.00684 0.551  1.99            0   103 Slc22a18, Abca1, 
##  5 HALLMARK_F 0.00160 0.00684 0.498  1.89            0   150 Vnn1, Ephx1, Fmo1
##  6 HALLMARK_P 0.00150 0.00684 0.479  1.88            0   189 Serpinb5, Ephx1, 
##  7 HALLMARK_A 0.00152 0.00684 0.459  1.80            0   186 Abca1, Ephx2, Cyp
##  8 HALLMARK_A 0.00157 0.00684 0.464  1.77            0   154 Ache, Ccr2, Ptpn6
##  9 HALLMARK_A 0.00154 0.00684 0.445  1.72            0   175 Cdsn, Acta1, Syk,
## 10 HALLMARK_I 0.00157 0.00684 0.447  1.72            0   163 Ly6e, Abca1, P2rx
## #  with 40 more rows
…
